<?xml version="1.0" encoding="utf-8"?>
<!-- Generator: Adobe Illustrator 15.0.0, SVG Export Plug-In . SVG Version: 6.00 Build 0)  -->
<!DOCTYPE svg PUBLIC "-//W3C//DTD SVG 1.1//EN" "http://www.w3.org/Graphics/SVG/1.1/DTD/svg11.dtd">
<svg version="1.1" id="Layer_1" xmlns="http://www.w3.org/2000/svg" xmlns:xlink="http://www.w3.org/1999/xlink" x="0px" y="0px"
	 width="50px" height="11.473px" viewBox="0 0 50 11.473" enable-background="new 0 0 50 11.473" xml:space="preserve">
<g>
	<polygon fill="#FFFFFF" points="25.005,11.448 0.108,2.245 0.929,0.025 25.005,8.922 49.069,0.025 49.893,2.245 	"/>
</g>
</svg>
