<?xml version="1.0" encoding="utf-8"?>
<!-- Generator: Adobe Illustrator 15.0.0, SVG Export Plug-In . SVG Version: 6.00 Build 0)  -->
<!DOCTYPE svg PUBLIC "-//W3C//DTD SVG 1.1//EN" "http://www.w3.org/Graphics/SVG/1.1/DTD/svg11.dtd">
<svg version="1.1" id="Layer_2" xmlns="http://www.w3.org/2000/svg" xmlns:xlink="http://www.w3.org/1999/xlink" x="0px" y="0px"
	 width="18.846px" height="25px" viewBox="0 0 18.846 25" enable-background="new 0 0 18.846 25" xml:space="preserve">
<g>
	<g>
		<path d="M18.846,25.029H0V-0.03h13.818l5.027,5.027V25.029z M0.729,24.301h17.387V5.299l-4.6-4.6H0.729V24.301z"/>
	</g>
	<g>
		<polygon points="18.481,5.601 13.303,5.601 13.303,0.335 14.032,0.335 14.032,4.871 18.481,4.871 		"/>
	</g>
</g>
<g>
	<path d="M4.108,16.218v0.332c0,0.045,0.011,0.068,0.034,0.068c0.011,0,0.037-0.013,0.077-0.042c0.17-0.17,0.351-0.309,0.541-0.417
		c0.191-0.107,0.445-0.162,0.763-0.162c0.352,0,0.666,0.085,0.941,0.255c0.275,0.17,0.493,0.426,0.652,0.766
		c0.159,0.341,0.239,0.761,0.239,1.262c0,0.511-0.08,0.945-0.239,1.307c-0.159,0.362-0.384,0.633-0.673,0.818
		c-0.29,0.184-0.625,0.276-1.005,0.276c-0.459,0-0.855-0.142-1.185-0.425c-0.045-0.039-0.08-0.062-0.102-0.062
		c-0.028,0-0.043,0.037-0.043,0.112v1.576c0,0.078-0.034,0.12-0.102,0.12h-0.69c-0.074,0-0.11-0.042-0.11-0.12v-5.648
		c0-0.057,0.012-0.097,0.037-0.119c0.026-0.023,0.067-0.034,0.124-0.034h0.597C4.061,16.082,4.108,16.127,4.108,16.218z
		 M4.607,19.937c0.167,0.088,0.351,0.132,0.549,0.132c0.392,0,0.703-0.151,0.933-0.457c0.23-0.303,0.345-0.747,0.345-1.331
		c0-0.569-0.114-0.99-0.34-1.262c-0.228-0.271-0.526-0.408-0.895-0.408c-0.205,0-0.391,0.044-0.558,0.132
		c-0.168,0.087-0.298,0.201-0.392,0.34c-0.094,0.14-0.141,0.277-0.141,0.414v2.052C4.273,19.719,4.44,19.849,4.607,19.937z"/>
	<path d="M11.375,20.46v-0.323c0-0.051-0.015-0.075-0.043-0.075c-0.017,0-0.039,0.015-0.068,0.041
		c-0.17,0.164-0.354,0.303-0.553,0.413c-0.2,0.11-0.452,0.166-0.759,0.166c-0.358,0-0.677-0.085-0.958-0.259
		c-0.281-0.174-0.501-0.433-0.66-0.777c-0.16-0.342-0.239-0.757-0.239-1.245c0-0.475,0.084-0.89,0.251-1.254
		c0.168-0.363,0.401-0.646,0.699-0.848c0.298-0.201,0.632-0.302,1.001-0.302c0.244,0,0.46,0.04,0.647,0.12
		c0.187,0.08,0.363,0.19,0.528,0.332c0.029,0.028,0.057,0.042,0.085,0.042c0.034,0,0.051-0.034,0.051-0.103v-1.985
		c0-0.085,0.036-0.127,0.11-0.127h0.682c0.034,0,0.061,0.011,0.08,0.034c0.021,0.022,0.03,0.054,0.03,0.093v6.049
		c0,0.052-0.013,0.088-0.038,0.11c-0.026,0.021-0.067,0.034-0.124,0.034h-0.588C11.421,20.597,11.375,20.55,11.375,20.46z
		 M10.855,16.747c-0.164-0.085-0.347-0.128-0.545-0.128c-0.386,0-0.699,0.151-0.938,0.452c-0.238,0.301-0.357,0.737-0.357,1.303
		s0.116,0.992,0.349,1.272c0.233,0.281,0.533,0.423,0.903,0.423c0.198,0,0.38-0.046,0.545-0.142
		c0.165-0.093,0.296-0.213,0.396-0.356c0.099-0.145,0.149-0.291,0.149-0.439v-1.993C11.188,16.962,11.021,16.831,10.855,16.747z"/>
	<path d="M15.958,16.192v0.443c0,0.062-0.037,0.094-0.111,0.094h-0.886c-0.051,0-0.077,0.025-0.077,0.076v3.654
		c0,0.09-0.037,0.137-0.111,0.137h-0.69c-0.068,0-0.102-0.039-0.102-0.117v-3.682c0-0.045-0.021-0.068-0.06-0.068h-0.767
		c-0.068,0-0.103-0.031-0.103-0.094v-0.443c0-0.074,0.037-0.11,0.111-0.11h0.732c0.035,0,0.057-0.007,0.069-0.021
		c0.011-0.014,0.017-0.041,0.017-0.081v-0.588c0-0.357,0.095-0.633,0.285-0.826s0.47-0.29,0.839-0.29h0.758
		c0.085,0,0.127,0.042,0.127,0.127l0.009,0.401c0,0.028-0.01,0.052-0.03,0.072c-0.021,0.02-0.047,0.03-0.082,0.03h-0.545
		c-0.159,0-0.278,0.051-0.357,0.153c-0.08,0.103-0.12,0.245-0.12,0.426v0.52c0,0.051,0.029,0.077,0.086,0.077h0.885
		C15.919,16.082,15.958,16.118,15.958,16.192z"/>
</g>
</svg>
